{
    "en": {
        "placeholder": "Search news articles",
        "empty": "No news articles found"
    },
    "nl": {
        "placeholder": "Zoek nieuwsartikelen",
        "empty": "Geen nieuwsartikelen gevonden"
    }
}
