<?xml version="1.0" encoding="utf-8"?>
<!-- Generator: Adobe Illustrator 22.0.1, SVG Export Plug-In . SVG Version: 6.00 Build 0)  -->
<svg version="1.1" id="Laag_1" xmlns="http://www.w3.org/2000/svg" xmlns:xlink="http://www.w3.org/1999/xlink" x="0px" y="0px"
	 viewBox="0 0 445.7 176.8" style="enable-background:new 0 0 445.7 176.8;" xml:space="preserve">
<style type="text/css">
	.st0{fill:#2E4C9C;}
</style>
<circle class="st0" cx="319.6" cy="14.9" r="14.9"/>
<path class="st0" d="M382.8,40.5c-8.5,0.3-16.5,1.9-23.3,4.4c-2.2,0.8-4.4,1.9-4.4,2s1.3,4.5,2.8,9.9s2.8,9.9,2.8,9.9
	s0.6-0.2,1.2-0.5c5.3-2.4,11.5-3.7,18.8-4.1c2.2-0.1,7.9-0.1,9.3,0.1c3.7,0.4,6.2,1,8.9,2.1c6.7,2.7,10.4,8.1,10.7,15.8
	c0.1,1.5,0,1.5-0.1,1.5c-1.6-0.5-5.6-1.2-8.1-1.4c-3-0.3-10.2,0-15.1,0.6c-14.2,1.7-24.9,6.2-32.4,13.7c-5.8,5.8-9.1,12.6-10.1,21.4
	c-0.2,1.8-0.3,6.8-0.1,8.7c0.4,5.2,1.5,9.5,3.6,13.4c2.8,5.4,7.1,9.7,12.8,12.7c6.2,3.2,14,4.8,22.7,4.6c5-0.1,9.3-0.8,13.8-2.3
	c7.2-2.4,12.4-5.8,15.2-10c0.3-0.4,0.5-0.7,0.5-0.7s0.2,0.4,0.4,0.9c1,2.6,2.8,5.2,5.2,7.5c2.4,2.3,4.8,3.7,7.5,4.3
	c1.9,0.4,5.3,0.4,8.1-0.1c2.6-0.4,4.6-1.1,6-2c1.5-1,3.4-3.2,4.6-5.2l0.3-0.5l-0.5-0.3c-4.4-3.2-7.1-9.7-8-19.2
	c-0.1-0.9-0.2-1.8-0.2-2c0-0.3-0.1-8.4-0.1-18c-0.1-17.3-0.1-18.6-0.4-23.1c-0.9-12.4-3.7-22.1-8.1-28.5
	c-4.7-6.9-12.7-11.7-23.3-13.9C397.7,40.8,390.3,40.2,382.8,40.5z M403.7,100c1.5,0.2,4.6,0.7,5.8,1l0.5,0.1v6.5
	c0,5.1-0.1,6.8-0.2,8c-1,8.9-4.9,14.6-11.8,17.3c-1.8,0.7-4.4,1.3-7,1.6c-1.4,0.2-6.8,0.2-8.2,0c-4.2-0.5-7.3-1.8-9.5-3.9
	c-1-1-1.6-1.8-2.3-3c-1.1-2.2-1.7-4.7-1.7-7.9c0-4.1,0.9-7.5,2.9-10.4c0.7-1.1,2.3-2.8,3.5-3.7c4.4-3.5,11.1-5.4,20.2-5.9
	C398.6,99.7,401.9,99.8,403.7,100z"/>
<path class="st0" d="M301.9,42.9c0,0.1-9.6,21.1-9.6,21.1h14v91.4h26.2V42.8C332.4,42.8,301.9,42.8,301.9,42.9z"/>
<path class="st0" d="M179.7,43.1c0.1,0.1,49.8,112.2,49.8,112.2h9.5c0,0,51.1-112.3,51.1-112.4c0,0-27.3-0.1-27.3,0
	c-0.3,0.9-28.3,67.3-28.3,67.3L208,42.7h-28.2L179.7,43.1z"/>
<path class="st0" d="M90.9,99.7c-0.7-0.7-0.7-1.9,0-2.7l12-11.9c0.7-0.7,0.7-1.8,0-2.5l-7.4-7.4c-0.7-0.7-1.8-0.7-2.5,0l-11.9,12
	c-0.7,0.7-1.9,0.7-2.7,0L66.5,75.3c-0.7-0.7-1.8-0.7-2.5,0l-7.4,7.4c-0.7,0.7-0.7,1.8,0,2.5l11.9,11.9c0.7,0.7,0.7,1.9,0,2.7
	l-11.8,11.8c-0.7,0.7-0.7,1.8,0,2.5l7.4,7.4c0.7,0.7,1.8,0.7,2.5,0L77,111.1l0,0l1.4-1.4c0.7-0.7,1.9-0.7,2.7,0L93,121.6
	c0.7,0.7,1.8,0.7,2.5,0l7.4-7.4c0.7-0.7,0.7-1.8,0-2.5L90.9,99.7z"/>
<path class="st0" d="M90.9,45.2c-0.7-0.7-0.7-1.9,0-2.7l12-11.9c0.7-0.7,0.7-1.8,0-2.5l-7.4-7.4c-0.7-0.7-1.8-0.7-2.5,0l-11.9,12
	c-0.7,0.7-1.9,0.7-2.7,0L66.5,20.8c-0.7-0.7-1.8-0.7-2.5,0l-7.4,7.4c-0.7,0.7-0.7,1.8,0,2.5l11.9,11.9c0.7,0.7,0.7,1.9,0,2.7
	L56.7,57.1c-0.7,0.7-0.7,1.8,0,2.5l7.4,7.4c0.7,0.7,1.8,0.7,2.5,0L77,56.6l0,0l1.4-1.4c0.7-0.7,1.9-0.7,2.7,0L93,67.1
	c0.7,0.7,1.8,0.7,2.5,0l7.4-7.4c0.7-0.7,0.7-1.8,0-2.5L90.9,45.2z"/>
<path class="st0" d="M0.9,91.3C3,91.2,5.1,91,7.1,90.1c2.5-1.1,4.1-3.1,5.1-5.6c1.4-3.5,1.6-7.1,1.7-10.8s0-7.4,0.2-11.1
	c0.2-3.4,0.3-6.9,1.3-10.2c1.2-3.9,3.6-6.8,7.2-8.8c4.1-2.2,8.5-2.7,13-2.9c1.6-0.1,3.1,0,4.7,0c1.5,0,1.8,0.4,1.8,1.8
	c0,3.7,0,7.3,0,11c0,1.4-0.3,1.7-1.8,1.8c-1.9,0.1-3.8,0.2-5.7,0.5c-2.6,0.4-4.2,2.1-4.5,4.7c-0.2,1.4-0.2,2.9-0.3,4.3
	c-0.3,5.5-0.4,11-0.8,16.5c-0.3,4.2-1.4,8.2-4,11.6c-1,1.3-2.3,2.4-3.5,3.5c-0.4,0.4-0.9,0.7-1.3,1c-0.8,0.7-0.7,1.3,0.1,2
	c1.3,1.1,2.5,2.3,3.7,3.4c1.7,1.7,2.7,3.8,3.5,6c1.6,4.4,1.8,9,2,13.6c0.2,4.2,0.3,8.5,0.4,12.7c0,0.8,0.2,1.7,0.5,2.5
	c0.8,2.4,2.9,3.3,5.2,3.6c1.7,0.2,3.4,0.3,5,0.4c1.1,0.1,1.4,0.4,1.4,1.5c0,3.9,0,7.8,0,11.7c0,1.1-0.4,1.5-1.5,1.6
	c-4.8,0-9.7,0-14.4-1.4c-3.4-1-6.2-2.9-8.4-5.7c-2.2-2.9-3.2-6.2-3.4-9.7c-0.3-4.4-0.3-8.7-0.5-13.1c-0.1-3.2-0.3-6.5-0.6-9.7
	c-0.2-2.3-1.1-4.5-2.3-6.5c-1.2-2.2-3.3-3.2-5.6-3.8c-1.5-0.4-3-0.5-4.5-0.8C0.9,101.1,0.9,96.2,0.9,91.3z"/>
<path class="st0" d="M158.8,91.3c-2.1-0.1-4.2-0.3-6.2-1.2c-2.5-1.1-4.1-3.1-5.1-5.6c-1.4-3.5-1.6-7.1-1.7-10.8
	c-0.1-3.7,0-7.4-0.2-11.1c-0.2-3.4-0.3-6.9-1.3-10.2c-1.2-3.9-3.6-6.8-7.2-8.8c-4.1-2.2-8.5-2.7-13-2.9c-1.6-0.1-3.1,0-4.7,0
	c-1.5,0-1.8,0.4-1.8,1.8c0,3.7,0,7.3,0,11c0,1.4,0.3,1.7,1.8,1.8c1.9,0.1,3.8,0.2,5.7,0.5c2.6,0.4,4.2,2.1,4.5,4.7
	c0.2,1.4,0.2,2.9,0.3,4.3c0.3,5.5,0.4,11,0.8,16.5c0.3,4.2,1.4,8.2,4,11.6c1,1.3,2.3,2.4,3.5,3.5c0.4,0.4,0.9,0.7,1.3,1
	c0.8,0.7,0.7,1.3-0.1,2c-1.3,1.1-2.5,2.3-3.7,3.4c-1.7,1.7-2.7,3.8-3.5,6c-1.6,4.4-1.8,9-2,13.6c-0.2,4.2-0.3,8.5-0.4,12.7
	c0,0.8-0.2,1.7-0.5,2.5c-0.8,2.4-2.9,3.3-5.2,3.6c-1.7,0.2-3.4,0.3-5,0.4c-1.1,0.1-1.4,0.4-1.4,1.5c0,3.9,0,7.8,0,11.7
	c0,1.1,0.4,1.5,1.5,1.6c4.8,0,9.7,0,14.4-1.4c3.4-1,6.2-2.9,8.4-5.7c2.2-2.9,3.2-6.2,3.4-9.7c0.3-4.4,0.3-8.7,0.5-13.1
	c0.1-3.2,0.3-6.5,0.6-9.7c0.2-2.3,1.1-4.5,2.3-6.5c1.2-2.2,3.3-3.2,5.6-3.8c1.5-0.4,3-0.5,4.5-0.8
	C158.8,101.1,158.8,96.2,158.8,91.3z"/>
<path class="st0" d="M90.9,154.2c-0.7-0.7-0.7-1.9,0-2.7l12-11.9c0.7-0.7,0.7-1.8,0-2.5l-7.4-7.4c-0.7-0.7-1.8-0.7-2.5,0l-11.9,12
	c-0.7,0.7-1.9,0.7-2.7,0l-11.9-11.9c-0.7-0.7-1.8-0.7-2.5,0l-7.4,7.4c-0.7,0.7-0.7,1.8,0,2.5l11.9,11.9c0.7,0.7,0.7,1.9,0,2.7
	l-11.8,11.8c-0.7,0.7-0.7,1.8,0,2.5l7.4,7.4c0.7,0.7,1.8,0.7,2.5,0L77,165.6l0,0l1.4-1.4c0.7-0.7,1.9-0.7,2.7,0L93,176.1
	c0.7,0.7,1.8,0.7,2.5,0l7.4-7.4c0.7-0.7,0.7-1.8,0-2.5L90.9,154.2z"/>
</svg>
