{
    "en": {
        "Accept": "Accept",
        "Accepted tutorings": "Accepted tutorings",
        "confirmation_message_accept": "Are you sure you want to accept this tutoring? The tutee will get notified by e-mail.",
        "confirmation_message_withdraw": "Are you sure you want to withdraw from this tutoring? The tutee will get notified by e-mail.",
        "confirmation_message_withdraw_course": "Are you sure you want to withdraw as tutor for {course}?",
        "Contact": "Contact",
        "Course": "Course",
        "Datanose code": "DataNose code",
        "Date": "Created on",
        "No tutoring requests open for courses you tutor": "No tutoring requests open for courses you tutor",
        "Number of hours": "Number of hours",
        "Phone": "Phone",
        "Register as tutor": "Register as tutor",
        "Requested by": "Requested by",
        "Successfully withdrawn": "Successfully withdrawn",
        "Successfully accepted": "Successfully accepted",
        "Tutor": "Tutor",
        "Tutoring": "Tutoring",
        "Tutoring courses": "Tutoring courses",
        "Tutoring requests": "Tutoring requests",
        "tutoring course overview": "tutoring course overview",
        "not_tutoring": "You have not accepted any tutoring requests. You can accept tutoring requests from the overview to the right.",
        "not_registered": "You have not registered as tutor for courses.",
        "You have successfully accepted the tutoring request.": "You have successfully accepted the tutoring request.",
        "You have successfully withdrawn as tutor for {course}.": "You have successfully withdrawn as tutor for {course}.",
        "Withdraw": "Withdraw"
    },
    "nl": {
        "Accept": "Accepteren",
        "Accepted tutorings": "Geaccepteerde bijlessen",
        "confirmation_message_accept": "Weet je zeker dat je deze bijles wil accepteren? De leerling zal op de hoogte worden gesteld per e-mail.",
        "confirmation_message_withdraw": "Weet je zeker dat je wilt terugtrekken van deze bijlesaanvraag? De leerling zal op de hoogte worden gesteld per e-mail.",
        "confirmation_message_withdraw_course": "Weet je zeker dat je wilt terugtrekken als bijlesdocent voor {course}?",
        "Contact": "Contact",
        "Course": "Vak",
        "Date": "Aangemaakt op",
        "No tutoring requests open for courses you tutor": "Geen bijlesaanvragen voor vakken waarvan je bijlesdocent bent",
        "Number of hours": "Aantal uren",
        "Phone": "Telefoon",
        "Requested by": "Aangevraagd door",
        "Register as tutor": "Registreer als bijlesdocent",
        "Successfully accepted": "Succesvol geaccepteerd",
        "Successfully withdrawn": "Succesvol teruggetrokken",
        "Tutor": "Bijlesdocent",
        "Tutoring": "Bijles",
        "Tutoring courses": "Aangemelde bijlesvakken",
        "Tutoring requests": "Ontvangen bijlesaanvragen",
        "tutoring course overview": "bijlesvakken-overzicht",
        "not_tutoring": "Je hebt nog geen bijlessen geaccepteerd. Je kan in het overzicht rechts bijlesaanvragen accepteren.",
        "not_registered": "Je hebt je nog niet geregisteerd als bijlesdocent voor vakken.",
        "You have successfully accepted the tutoring request.": "Je hebt de bijlesaanvraag succesvol geaccepteerd.",
        "You have successfully withdrawn from the tutoring request.": "Je hebt je succesvol teruggetrokken van de bijlesaanvraag.",
        "You have successfully withdrawn as tutor for {course}.": "Je hebt je succesvol teruggetrokken als bijlesdocent voor {course}.",
        "Withdraw": "Terugtrekken"
    }
}
