{
    "en": {
        "alert.save.warning": "Your contact details are automatically retrieved from your profile. Update it {here}",
        "button.course.add": "Add course to registration",
        "course.list.description": "Grade: {grade}.",
        "course.list.empty.title": "No courses selected",
        "course.list.empty.description": "Please select courses using the form at the top of the page.",
        "form.course.required": "Course is required.",
        "form.grade.required": "Grade is required.",
        "Availability on a weekly basis": "Availability on a weekly basis",
        "Awaiting approval": "Awaiting approval",
        "Awaiting VIA confirmation": "Awaiting VIA confirmation",
        "Course": "Course",
        "steps.2.title": "Select courses",
        "steps.2.description": "Submit grades",
        "Comment": "Comment",
        "Contact the tutor": "Contact the tutor",
        "Cancel tutoring request": "Cancel tutoring request",
        "Datanose code": "DataNose code",
        "Enrolled courses": "Enrolled courses",
        "examination_collection": "collection of examinations",
        "Grade": "Grade",
        "Grade acquired while following the course": "Grade acquired while following the course",
        "Hours expected": "Hours expected",
        "Show tutor profile": "Show tutor profile",
        "Search course or code": "Search course or code",
        "Personal information": "Personal information",
        "Please select course from the overview": "Please select course from the overview",
        "No course selected": "No course selected",
        "Tutoring": "Tutoring",
        "Tutor found": "Tutor found",
        "Tutor registration": "Tutor registration",
        "Tutoring request deleted.": "Tutoring request deleted.",
        "Verify your contact information": "Verify your contact information",
        "VIA is looking for a tutor": "VIA is looking for a tutor",
        "Unconfirmed user": "Connect your UvAnetID {here} to view your enrolled courses.",
        "waiting": "Via has been notified of your tutor registration, please await approval."
    },
    "nl": {
        "alert.save.warning": "Je contactgegevens zijn automatisch uit je profiel gehaald. Update ze {here}",
        "button.course.add": "Voeg vak toe aan registratie",
        "course.list.description": "Cijfer: {grade}.",
        "course.list.empty.title": "Geen vakken geselecteerd",
        "course.list.empty.description": "Selecteer vakken met het formulier bovenaan de pagina.",
        "form.course.required": "Vak is vereist.",
        "form.grade.required": "Cijfer is vereist.",
        "Availability on a weekly basis": "Beschikbaarheid op wekelijkse basis",
        "Awaiting approval": "Goedkeuring afwachten",
        "Awaiting VIA confirmation": "via goedkeuring afwachten",
        "Course": "Vak",
        "steps.2.title": "Kies vakken",
        "steps.2.description": "Vul cijfers in",
        "Comment": "Opmerkingen",
        "Contact the tutor": "Contacteer de docent",
        "Cancel tutoring request": "Bijlesaanvraag annuleren",
        "Datanose code": "DataNose code",
        "Enrolled courses": "Ingeschreven vakken",
        "examination_collection": "tentamenbank",
        "Grade": "Cijfer",
        "Grade acquired while following the course": "Cijfer behaald tijdens het volgen van het vak",
        "Hours expected": "Verwachte uren",
        "Search course or code": "Zoek vak of vakcode",
        "Show tutor profile": "Bekijk bijlesdocent-profiel",
        "Personal information": "Persoonlijke informatie",
        "Please select course from the overview": "Selecteer een vak vanuit het overzicht",
        "Tutoring": "Bijles",
        "Tutor found": "Docent gevonden",
        "Tutor registration": "Bijlesdocent-aanmelding",
        "Tutoring request deleted.": "Bijlesaanvraag verwijderd.",
        "Verify your contact information": "Verifieer je contactgegevens",
        "VIA is looking for a tutor": "via is op zoek naar een docent",
        "Unconfirmed user": "Koppel je UvAnetID {here} om jouw ingeschreven vakken te zien.",
        "waiting": "Via is op de hoogte gesteld van je registratie als bijlesdocent, wacht op bevestiging."
    }
}
